   0.000000     
   0.000000     
   0.000000     
   6.231434     
   20.99639     
   51.47858     
   0.000000     
   0.000000     
   0.000000     
   6.231434     
   20.99639     
   51.47858     
   0.000000     
   0.000000     
   0.000000     
   6.231434     
   20.99639     
   51.47858     
   0.000000     
   0.000000     
   0.000000     
   6.231434     
   20.99639     
   51.47858     
   0.000000     
   0.000000     
   0.000000     
   6.231434     
   20.99639     
   51.47858     
   0.000000     
   0.000000     
   0.000000     
   6.231434     
   20.99639     
   51.47858     
