 -0.7879051E-014
 -0.2290823     
 -0.2568035     
  0.6156537     
   1.314006     
  0.3077211E-001
   0.000000     
   0.000000     
 -0.6225519     
  -1.296591     
  -1.201353     
 -0.5466201     
   0.000000     
   0.000000     
 -0.2864720     
  -2.258735     
  -2.593576     
  -2.589973     
   0.000000     
   0.000000     
   0.000000     
  -2.260417     
  -4.402633     
  -8.026489     
   0.000000     
   0.000000     
   0.000000     
  -1.367775     
  -5.186610     
  -10.58700     
   0.000000     
   0.000000     
   0.000000     
  0.2062854     
  -1.834108     
  -11.42453     
