   19.60193        11.24864        9.602857        8.133623        4.115901        2.171856        0.000000        0.000000        0.000000        0.000000        0.000000     
   50.47685        33.36929        29.43705        0.000000        0.000000        0.000000        0.000000        0.000000        0.000000        0.000000        0.000000     
   61.06944        48.76069        45.54132        42.47222        0.000000        0.000000        0.000000        0.000000        0.000000        0.000000        0.000000     
   73.92437        65.09645        62.27945        59.56828        52.10445        48.88574        0.000000        0.000000        57.61939        54.21041        0.000000     
   79.66219        72.27755        69.24628        66.43211        58.76690        55.47661        52.34043        61.32514        65.51352        61.24621        58.18611     
   0.000000        0.000000        79.65383        76.71634        68.76142        65.18521        61.84141        76.54912        76.04018        70.65030        67.52861     
   0.000000        0.000000        0.000000        0.000000        0.000000        0.000000        0.000000        0.000000        0.000000        0.000000        0.000000     
   0.000000        0.000000        0.000000        0.000000        0.000000        0.000000        0.000000        0.000000        0.000000        0.000000        0.000000     
   50.67156        42.43540        40.46461        38.94480        0.000000        0.000000        0.000000        0.000000        0.000000        0.000000        0.000000     
   63.17531        57.14133        55.48444        54.53009        49.99812        47.66125        0.000000        0.000000        57.61939        54.21041        0.000000     
   68.92395        64.59520        62.96263        60.69606        56.28686        54.08955        51.74089        61.32514        65.51352        61.24621        58.18611     
   79.16607        75.12156        73.16531        71.23484        65.96332        63.55233        61.14155        76.54912        76.04018        70.65030        67.52861     
  -38.23034        0.000000        0.000000        0.000000        0.000000        0.000000        0.000000        0.000000        0.000000        0.000000        0.000000     
   0.000000        0.000000        0.000000        0.000000        0.000000        0.000000        0.000000        0.000000        0.000000        0.000000        0.000000     
   46.48711        40.76305        39.86033        0.000000        0.000000        0.000000        0.000000        0.000000        0.000000        0.000000        0.000000     
   57.59326        53.38140        52.58169        51.64844        49.08905        47.12245        0.000000        0.000000        57.61939        54.21041        0.000000     
   63.28363        59.96988        58.96837        57.85584        55.05093        53.39805        51.43414        61.32514        65.51352        61.24621        58.18611     
   73.16893        70.67076        69.35964        68.05694        64.33527        62.65979        60.73399        76.54912        76.04018        70.65030        67.52861     
  -66.77841       -59.11893       -55.26947       -51.73919        0.000000        0.000000        0.000000        0.000000        0.000000        0.000000        0.000000     
  -60.44394       -53.27190       -49.96383       -46.67820        0.000000        0.000000        0.000000        0.000000        0.000000        0.000000        0.000000     
  -56.03669       -49.20215       -46.32059       -43.39864        0.000000        0.000000        0.000000        0.000000        0.000000        0.000000        0.000000     
  -48.94888       -43.60926       -41.67016        47.72014        47.35601        46.37248        0.000000        0.000000        57.61939        54.21041        0.000000     
   51.55116        51.17814        51.70206        52.45937        52.61335        52.04339        50.84944        61.32514        65.51352        61.24621        58.18611     
   58.13544        60.29199        60.30390        60.60287        60.99662        60.76665        59.90298        76.54912        76.04018        70.65030        67.52861     
  -75.59941       -68.03112       -64.06110       -60.59891       -44.94115        0.000000        0.000000        0.000000        0.000000        0.000000        0.000000     
  -69.13509       -61.03388       -57.67054       -55.33754       -40.36694        0.000000        0.000000        0.000000        0.000000        0.000000        0.000000     
  -65.32379       -57.58006       -54.60788       -51.81073       -38.29028        0.000000        0.000000        0.000000        0.000000        0.000000        0.000000     
  -58.25602       -50.24418       -48.25886       -46.44813        46.32273        0.000000        0.000000        0.000000        57.61939        54.21041        0.000000     
  -52.14720       -44.93216       -43.82971       -42.91119        51.05679        51.18372        50.41912        61.32514        65.51352        61.24621        58.18611     
   45.51848        51.06965        53.26091        54.98365        58.53929        59.46456        59.26199        76.54912        76.04018        70.65030        67.52861     
  -90.34012       -79.33928       -75.29027       -72.56401       -58.44359       -45.82916        0.000000        0.000000        0.000000        0.000000        0.000000     
  -83.76741       -73.18709       -69.55573       -66.35714       -54.31947       -41.99292        0.000000        0.000000        0.000000        0.000000        0.000000     
  -79.93847       -69.71592       -66.34303       -63.41157       -51.98435       -39.93495        0.000000        0.000000        0.000000        0.000000        0.000000     
  -72.06139       -61.77295       -59.03712       -56.75609       -46.94216        0.000000        0.000000        0.000000        57.61939        54.21041        0.000000     
  -64.69042       -55.13051       -53.10755       -51.56788       -44.09301        49.46009        49.53240        61.32514        65.51352        61.24621        58.18611     
   38.75928       -40.24011       -36.97486       -38.70472        53.37496        56.59931        57.88951        76.54912        76.04018        70.65030        67.52861     
   0.000000        0.000000        0.000000        0.000000        0.000000        0.000000        0.000000        0.000000        0.000000        0.000000        0.000000     
   0.000000        0.000000        0.000000        0.000000        0.000000        0.000000        0.000000        0.000000        0.000000        0.000000        0.000000     
   0.000000        0.000000        0.000000        0.000000        0.000000        0.000000        0.000000        0.000000        0.000000        0.000000        0.000000     
   0.000000        0.000000        0.000000        0.000000        0.000000        0.000000        0.000000        0.000000        0.000000        0.000000        0.000000     
   0.000000        0.000000        0.000000        0.000000        0.000000        0.000000        0.000000        0.000000        0.000000        0.000000        0.000000     
   0.000000        0.000000        0.000000        0.000000        0.000000        0.000000        0.000000        0.000000        0.000000        0.000000        0.000000     
   0.000000        0.000000        0.000000        0.000000        0.000000        0.000000        0.000000        0.000000        0.000000        0.000000        0.000000     
   0.000000        0.000000        0.000000        0.000000        0.000000        0.000000        0.000000        0.000000        0.000000        0.000000        0.000000     
   0.000000        0.000000        0.000000        0.000000        0.000000        0.000000        0.000000        0.000000        0.000000        0.000000        0.000000     
   0.000000        0.000000        0.000000        0.000000        0.000000        0.000000        0.000000        0.000000        0.000000        0.000000        0.000000     
   0.000000        0.000000        0.000000        0.000000        0.000000        0.000000        0.000000        0.000000        0.000000        0.000000        0.000000     
   0.000000        0.000000        0.000000        0.000000        0.000000        0.000000        0.000000        0.000000        0.000000        0.000000        0.000000     
   0.000000        0.000000        0.000000        0.000000        0.000000        0.000000        0.000000        0.000000        0.000000        0.000000        0.000000     
   0.000000        0.000000        0.000000        0.000000        0.000000        0.000000        0.000000        0.000000        0.000000        0.000000        0.000000     
   0.000000        0.000000        0.000000        0.000000        0.000000        0.000000        0.000000        0.000000        0.000000        0.000000        0.000000     
   0.000000        0.000000        0.000000        0.000000        0.000000        0.000000        0.000000        0.000000        0.000000        0.000000        0.000000     
   0.000000        0.000000        0.000000        0.000000        0.000000        0.000000        0.000000        0.000000        0.000000        0.000000        0.000000     
   0.000000        0.000000        0.000000        0.000000        0.000000        0.000000        0.000000        0.000000        0.000000        0.000000        0.000000     
   0.000000        0.000000        0.000000        0.000000        0.000000        0.000000        0.000000        0.000000        0.000000        0.000000        0.000000     
   0.000000        0.000000        0.000000        0.000000        0.000000        0.000000        0.000000        0.000000        0.000000        0.000000        0.000000     
   0.000000        0.000000        0.000000        0.000000        0.000000        0.000000        0.000000        0.000000        0.000000        0.000000        0.000000     
   49.72295        48.10955        48.03179       -39.47743        0.000000        0.000000        0.000000        0.000000        0.000000        0.000000        0.000000     
  -45.26443       -40.91300       -39.35222       -37.14675        0.000000        0.000000        0.000000        0.000000        0.000000        0.000000        0.000000     
  -42.85149        0.000000        0.000000        0.000000        0.000000        0.000000        0.000000        0.000000        0.000000        0.000000        0.000000     
   0.000000        0.000000        0.000000        0.000000        0.000000        0.000000        0.000000        0.000000        0.000000        0.000000        0.000000     
   0.000000        0.000000        0.000000        0.000000        0.000000        0.000000        0.000000        0.000000        0.000000        0.000000        0.000000     
   0.000000        0.000000        0.000000        0.000000        0.000000        0.000000        0.000000        0.000000        0.000000        0.000000        0.000000     
   47.79322        46.73575        46.86636        46.80044       -34.72121        0.000000        0.000000        0.000000        0.000000        0.000000        0.000000     
   47.02435        47.80568        48.49465        49.28720        0.000000        0.000000        0.000000        0.000000        0.000000        0.000000        0.000000     
  -40.21645       -38.15638       -38.70488       -38.75372        0.000000        0.000000        0.000000        0.000000        0.000000        0.000000        0.000000     
   0.000000        0.000000        0.000000        0.000000        0.000000        0.000000        0.000000        0.000000        0.000000        0.000000        0.000000     
   0.000000        0.000000        0.000000        0.000000        0.000000        0.000000        0.000000        0.000000        0.000000        0.000000        0.000000     
   0.000000        0.000000        0.000000        0.000000        0.000000        0.000000        0.000000        0.000000        0.000000        0.000000        0.000000     
   0.000000        0.000000        0.000000        0.000000        0.000000        0.000000        0.000000        0.000000        0.000000        0.000000        0.000000     
   47.63023        46.79937        46.85088        47.12344        48.61494        0.000000        0.000000        0.000000        0.000000        0.000000        0.000000     
   0.000000        40.07044        41.48646        44.58122       -38.03254        0.000000        0.000000        0.000000        0.000000        0.000000        0.000000     
