  0.7558804       0.8748695       0.9378253       0.9821593        1.030319        1.070113        1.106260        1.144338        1.153552        0.000000        0.000000        4.196712        2.690003        1.545038       0.8090821        0.000000        0.000000        0.000000     
  0.7609994       0.8644647       0.9307422       0.9732610        1.020074        1.061869        1.078551        1.138383        1.151210        0.000000        0.000000        4.196712        2.690003        1.545038       0.8090821        0.000000        0.000000        0.000000     
  0.7636477       0.8607305       0.9164891       0.9663669        1.006569        1.054681        1.090140        1.135453        1.153339        0.000000        0.000000        4.196712        2.690003        1.545038       0.8090821        0.000000        0.000000        0.000000     
  0.7675389       0.8536588       0.9044208       0.9575772       0.9993011        1.043711        1.079802        1.064650        1.155002        0.000000        0.000000        4.196712        2.690003        1.545038       0.8090821        0.000000        0.000000        0.000000     
  0.7719896       0.8330526       0.8723131       0.9267740       0.9698632        1.020792        1.063911        1.112586        1.142098        0.000000        0.000000        4.196712        2.690003        1.545038       0.8090821        0.000000        0.000000        0.000000     
  0.7743485       0.8176329       0.8658715       0.9121515       0.9546447        1.001192        1.047596        1.102805        1.139682        0.000000        0.000000        4.196712        2.690003        1.545038       0.8090821        0.000000        0.000000        0.000000     
  0.7747058       0.8098931       0.8536146       0.8999373       0.9443293       0.9899196        1.030548        0.000000        0.000000        0.000000        0.000000        4.196712        2.690003        1.545038       0.8090821        0.000000        0.000000        0.000000     
  0.7759578       0.7930250       0.8384626       0.8826902       0.9269927       0.9760084        1.014305        1.088577        0.000000        0.000000        0.000000        4.196712        2.690003        1.545038       0.8090821        0.000000        0.000000        0.000000     
   0.000000        0.000000        0.000000        0.000000        0.000000        0.000000        0.000000        0.000000        0.000000        0.000000        0.000000        0.000000        0.000000        0.000000        0.000000        0.000000        0.000000        0.000000     
   0.000000        0.000000        0.000000        0.000000        0.000000        0.000000        0.000000        0.000000        0.000000        0.000000        0.000000        0.000000        0.000000        0.000000        0.000000        0.000000        0.000000        0.000000     
   0.000000        0.000000        0.000000        0.000000        0.000000        0.000000        0.000000        0.000000        0.000000        0.000000        0.000000        0.000000        0.000000        0.000000        0.000000        0.000000        0.000000        0.000000     
   0.000000        0.000000        0.000000        0.000000        0.000000        0.000000        0.000000        0.000000        0.000000        0.000000        0.000000        0.000000        0.000000        0.000000        0.000000        0.000000        0.000000        0.000000     
  0.7733249       0.8325280       0.8719591       0.9268276       0.9704581        0.000000        0.000000        0.000000        0.000000        0.000000        0.000000        0.000000        0.000000        0.000000        0.000000        0.000000        0.000000        0.000000     
  0.7730395       0.8182785       0.8680071       0.9149034       0.9549989        1.005076        1.050702        0.000000        0.000000        0.000000        0.000000        0.000000        0.000000        0.000000        0.000000        0.000000        0.000000        0.000000     
  0.7767570       0.8108536       0.8558758       0.9017313       0.9452698       0.9892598        1.030920        0.000000        0.000000        0.000000        0.000000        0.000000        0.000000        0.000000        0.000000        0.000000        0.000000        0.000000     
   0.000000        0.000000        0.000000        0.000000        0.000000        0.000000        0.000000        0.000000        0.000000        0.000000        0.000000        0.000000        0.000000        0.000000        0.000000        0.000000        0.000000        0.000000     
