   47.89772        43.58794        42.78901        41.80592        40.55551        37.84160        35.17124        30.21638        25.59715        0.000000        0.000000        37.82457        29.74131        24.43718        19.97509        0.000000        0.000000        0.000000     
   51.60830        41.22470        40.72298        39.67966        38.66266        36.18845        33.65204        28.91152        24.48184        0.000000        0.000000        37.82457        29.74131        24.43718        19.97509        0.000000        0.000000        0.000000     
   42.62312        38.84839        38.53927        37.36220        36.06328        34.42744        32.15203        27.70775        23.48484        0.000000        0.000000        37.82457        29.74131        24.43718        19.97509        0.000000        0.000000        0.000000     
   40.09208        36.89356        36.21364        35.29525        33.99743        32.79493        30.49705        26.39231        22.50290        0.000000        0.000000        37.82457        29.74131        24.43718        19.97509        0.000000        0.000000        0.000000     
   4.904108        4.347226        3.455509        29.67929        28.41813        26.57397        26.16024        22.73371        19.39036        0.000000        0.000000        37.82457        29.74131        24.43718        19.97509        0.000000        0.000000        0.000000     
   6.800667        6.205258        5.150467        4.081846        3.011499        1.867305        22.86899        20.36195        17.56166        0.000000        0.000000        37.82457        29.74131        24.43718        19.97509        0.000000        0.000000        0.000000     
   8.114247        7.632915        6.907400        5.658546        4.831486        3.218713        1.869585        0.000000        0.000000        0.000000        0.000000        37.82457        29.74131        24.43718        19.97509        0.000000        0.000000        0.000000     
   9.291330        8.999622        8.421396        7.485940        6.444904        5.072151        3.392188        1.058467        0.000000        0.000000        0.000000        37.82457        29.74131        24.43718        19.97509        0.000000        0.000000        0.000000     
   0.000000        0.000000        0.000000        0.000000        0.000000        0.000000        0.000000        0.000000        0.000000        0.000000        0.000000        0.000000        0.000000        0.000000        0.000000        0.000000        0.000000        0.000000     
   0.000000        0.000000        0.000000        0.000000        0.000000        0.000000        0.000000        0.000000        0.000000        0.000000        0.000000        0.000000        0.000000        0.000000        0.000000        0.000000        0.000000        0.000000     
   0.000000        0.000000        0.000000        0.000000        0.000000        0.000000        0.000000        0.000000        0.000000        0.000000        0.000000        0.000000        0.000000        0.000000        0.000000        0.000000        0.000000        0.000000     
   0.000000        0.000000        0.000000        0.000000        0.000000        0.000000        0.000000        0.000000        0.000000        0.000000        0.000000        0.000000        0.000000        0.000000        0.000000        0.000000        0.000000        0.000000     
   32.22061        31.58630        30.50728        2.388215        1.516436        0.000000        0.000000        0.000000        0.000000        0.000000        0.000000        0.000000        0.000000        0.000000        0.000000        0.000000        0.000000        0.000000     
   29.08574        26.89455        26.72333        26.48704        25.33996        23.77872       0.8471314        0.000000        0.000000        0.000000        0.000000        0.000000        0.000000        0.000000        0.000000        0.000000        0.000000        0.000000     
   27.01775        25.17795        24.64201        23.52254        22.34452        21.30455        20.50875        0.000000        0.000000        0.000000        0.000000        0.000000        0.000000        0.000000        0.000000        0.000000        0.000000        0.000000     
   0.000000        0.000000        0.000000        0.000000        0.000000        0.000000        0.000000        0.000000        0.000000        0.000000        0.000000        0.000000        0.000000        0.000000        0.000000        0.000000        0.000000        0.000000     
