  0.4794828E-014  0.4381326E-014
  0.4794828E-014  0.4381326E-014
  0.4794828E-014  0.4381326E-014
  0.4794828E-014  0.4381326E-014
  0.4794828E-014  0.4381326E-014
  0.4876223E-014  0.3792386E-014
  0.3050807E-015  0.3852005E-015
 -0.1809204E-013 -0.1286069E-013
 -0.3866288E-013 -0.2636455E-013
 -0.6465615E-013 -0.3720663E-013
 -0.5386911E-013 -0.3977501E-013
 -0.1314286E-013 -0.6708808E-014
 -0.9707949E-016  0.3722061E-015
   0.000000        0.000000     
