   0.000000     
   0.000000     
   0.000000     
   0.000000     
   0.000000     
   0.000000     
   0.000000     
   0.000000     
   0.000000     
   0.000000     
   0.000000     
   0.000000     
  0.4779071E+020
   0.000000     
   0.000000     
   0.000000     
   0.000000     
   0.000000     
  0.7551563E+022
  0.3232565E+022
  0.7807908E+021
 -0.4069694E+022
 -0.6921374E+022
 -0.4175778E+022
  0.1225085E+023
  0.6133443E+022
  0.2346064E+022
 -0.6645786E+022
 -0.1474076E+023
 -0.3179296E+023
  0.2059354E+023
  0.1199143E+023
  0.6954942E+022
 -0.4704028E+022
 -0.1531428E+023
 -0.4556129E+023
