   0.000000        0.000000     
   0.000000        0.000000     
   0.000000        0.000000     
   0.000000        0.000000     
   0.000000        0.000000     
   0.000000        0.000000     
   0.000000        0.000000     
   0.000000        0.000000     
   0.000000        0.000000     
   0.000000        0.000000     
   0.000000        0.000000     
   0.000000        0.000000     
 -0.1580018      -0.4954836     
   0.000000        0.000000     
   0.000000        0.000000     
   0.000000        0.000000     
   0.000000        0.000000     
   0.000000        0.000000     
  -9.694680       -15.89050     
  -9.131498       -16.53715     
  -8.733731       -17.01512     
  -7.154428       -15.39446     
  -6.947244       -17.24815     
  -3.290361       -8.901874     
  -12.69221       -18.69141     
  -12.36341       -19.64160     
  -12.13640       -20.17768     
  -11.96842       -21.06174     
  -11.76967       -22.51595     
  -9.879811       -23.62388     
  -16.15132       -21.50417     
  -16.00980       -22.41443     
  -15.92242       -22.94181     
  -15.90354       -23.04993     
  -16.28748       -24.72220     
  -10.26121       -21.80638     
