 -0.2568322       0.2920528       0.2740872       0.2413740       0.1066989        0.000000        0.000000        0.000000        0.000000        0.000000        0.000000     
 -0.4030452       0.3607047E-002 -0.2250841E-001   0.000000        0.000000        0.000000        0.000000        0.000000        0.000000        0.000000        0.000000     
 -0.1759346       0.9892960E-001  0.7572657E-001  0.5348173E-001   0.000000        0.000000        0.000000        0.000000        0.000000        0.000000        0.000000     
  0.3683542E-001  0.2081165       0.1869759       0.1617510       0.7761905E-001  0.3990117E-001  0.1531290E-001  0.8421367E-002  0.5648663E-002  0.1714062E-002  0.7619534E-003
  0.1153352       0.2439879       0.2253014       0.2026447       0.1135334       0.6816607E-001  0.3153659E-001  0.1736069E-001  0.8408405E-002  0.3133686E-002  0.1967208E-002
   0.000000       0.2871407       0.2686895       0.2460477       0.1560559       0.1016522       0.5106723E-001  0.2740209E-001   0.000000       0.4787024E-002  0.3450674E-002
   0.000000        0.000000        0.000000        0.000000        0.000000        0.000000        0.000000        0.000000        0.000000        0.000000        0.000000     
   0.000000        0.000000        0.000000        0.000000        0.000000        0.000000        0.000000        0.000000        0.000000        0.000000        0.000000     
 -0.3402376      -0.4867204E-001 -0.4043655E-001   0.000000        0.000000        0.000000        0.000000        0.000000        0.000000        0.000000        0.000000     
 -0.6587774E-002  0.1685697       0.1489610       0.1282818       0.6269179E-001  0.3292086E-001  0.1312800E-001  0.8421367E-002  0.5648663E-002  0.1714062E-002  0.7619534E-003
  0.1076286       0.2358023       0.2134672       0.1892058       0.1053560       0.6368896E-001  0.3003009E-001  0.1736069E-001  0.8408405E-002  0.3133686E-002  0.1967208E-002
  0.2376072       0.3007086       0.2776196       0.2521515       0.1556911       0.1011856       0.5052948E-001  0.2740209E-001   0.000000       0.4787024E-002  0.3450674E-002
   2.119359        2.355007        2.301689        0.000000        0.000000        0.000000        0.000000        0.000000        0.000000        0.000000        0.000000     
   2.132298        2.389988        0.000000        0.000000        0.000000        0.000000        0.000000        0.000000        0.000000        0.000000        0.000000     
 -0.4884521      -0.1355661        0.000000        0.000000        0.000000        0.000000        0.000000        0.000000        0.000000        0.000000        0.000000     
 -0.5101416E-001  0.1288106       0.1146198       0.1003352       0.5316116E-001  0.2894781E-001  0.1213271E-001  0.8421367E-002  0.5648663E-002  0.1714062E-002  0.7619534E-003
  0.9393016E-001  0.2196005       0.1978088       0.1750233       0.9889843E-001  0.6085326E-001  0.2908820E-001  0.1736069E-001  0.8408405E-002  0.3133686E-002  0.1967208E-002
  0.2517247       0.3063151       0.2810404       0.2536809       0.1549935       0.1005654       0.5015593E-001  0.2740209E-001   0.000000       0.4787024E-002  0.3450674E-002
   1.769936        1.798187        1.758192        1.718093        1.512580        0.000000        0.000000        0.000000        0.000000        0.000000        0.000000     
   1.745598        1.788794        1.758091        1.729087        0.000000        0.000000        0.000000        0.000000        0.000000        0.000000        0.000000     
   1.732814        1.770326        1.757157        1.735794        0.000000        0.000000        0.000000        0.000000        0.000000        0.000000        0.000000     
   1.718332        1.771020        1.769614        1.765095       0.3012859E-001  0.2243706E-001  0.9215285E-002  0.8421367E-002  0.5648663E-002  0.1714062E-002  0.7619534E-003
   1.701868       0.1490412       0.1398007       0.1288768       0.8419628E-001  0.5604534E-001  0.2708588E-001  0.1736069E-001  0.8408405E-002  0.3133686E-002  0.1967208E-002
  0.2867952       0.3169569       0.2850885       0.2534590       0.1523326       0.9873663E-001  0.4922803E-001  0.2740209E-001   0.000000       0.4787024E-002  0.3450674E-002
   1.511821        1.524928        1.491558        1.457986        1.287440        0.000000        0.000000        0.000000        0.000000        0.000000        0.000000     
   1.490684        1.502512        1.479691        1.456351        1.315650        0.000000        0.000000        0.000000        0.000000        0.000000        0.000000     
   1.482218        1.487190        1.473435        1.454240        1.332351        0.000000        0.000000        0.000000        0.000000        0.000000        0.000000     
   1.443842        1.464449        1.456783        1.450915        1.370474       0.1716496E-001  0.7459038E-002  0.8421367E-002  0.5648663E-002  0.1714062E-002  0.7619534E-003
   1.406112        1.442842        1.450093        1.457312       0.7019366E-001  0.5288713E-001  0.2550089E-001  0.1736069E-001  0.8408405E-002  0.3133686E-002  0.1967208E-002
   1.359225       0.3134314       0.2793061       0.2473454       0.1491243       0.9691713E-001  0.4858209E-001  0.2740209E-001   0.000000       0.4787024E-002  0.3450674E-002
   1.151396        1.156604        1.130759        1.110977       0.9860085       0.8635883        0.000000        0.000000        0.000000        0.000000        0.000000     
   1.135449        1.140109        1.121628        1.101310       0.9938754       0.8806596        0.000000        0.000000        0.000000        0.000000        0.000000     
   1.124191        1.129386        1.113016        1.097334       0.9985390       0.8906550        0.000000        0.000000        0.000000        0.000000        0.000000     
   1.097854        1.104234        1.092960        1.084657        1.009106       0.9140042       0.2799462E-002  0.8421367E-002  0.5648663E-002  0.1714062E-002  0.7619534E-003
   1.074256        1.078257        1.075242        1.074344        1.023956       0.4329564E-001  0.2166715E-001  0.1736069E-001  0.8408405E-002  0.3133686E-002  0.1967208E-002
 -0.2042466E-001   1.009301        1.024081        1.043702       0.1348813       0.9633894E-001  0.4709926E-001  0.2740209E-001   0.000000       0.4787024E-002  0.3450674E-002
   0.000000        0.000000        0.000000        0.000000        0.000000        0.000000        0.000000        0.000000        0.000000        0.000000        0.000000     
   0.000000        0.000000        0.000000        0.000000        0.000000        0.000000        0.000000        0.000000        0.000000        0.000000        0.000000     
   0.000000        0.000000        0.000000        0.000000        0.000000        0.000000        0.000000        0.000000        0.000000        0.000000        0.000000     
   0.000000        0.000000        0.000000        0.000000        0.000000        0.000000        0.000000        0.000000        0.000000        0.000000        0.000000     
   0.000000        0.000000        0.000000        0.000000        0.000000        0.000000        0.000000        0.000000        0.000000        0.000000        0.000000     
   0.000000        0.000000        0.000000        0.000000        0.000000        0.000000        0.000000        0.000000        0.000000        0.000000        0.000000     
   0.000000        0.000000        0.000000        0.000000        0.000000        0.000000        0.000000        0.000000        0.000000        0.000000        0.000000     
   0.000000        0.000000        0.000000        0.000000        0.000000        0.000000        0.000000        0.000000        0.000000        0.000000        0.000000     
   0.000000        0.000000        0.000000        0.000000        0.000000        0.000000        0.000000        0.000000        0.000000        0.000000        0.000000     
   0.000000        0.000000        0.000000        0.000000        0.000000        0.000000        0.000000        0.000000        0.000000        0.000000        0.000000     
   0.000000        0.000000        0.000000        0.000000        0.000000        0.000000        0.000000        0.000000        0.000000        0.000000        0.000000     
   0.000000        0.000000        0.000000        0.000000        0.000000        0.000000        0.000000        0.000000        0.000000        0.000000        0.000000     
   0.000000        0.000000        0.000000        0.000000        0.000000        0.000000        0.000000        0.000000        0.000000        0.000000        0.000000     
   0.000000        0.000000        0.000000        0.000000        0.000000        0.000000        0.000000        0.000000        0.000000        0.000000        0.000000     
   0.000000        0.000000        0.000000        0.000000        0.000000        0.000000        0.000000        0.000000        0.000000        0.000000        0.000000     
   0.000000        0.000000        0.000000        0.000000        0.000000        0.000000        0.000000        0.000000        0.000000        0.000000        0.000000     
   0.000000        0.000000        0.000000        0.000000        0.000000        0.000000        0.000000        0.000000        0.000000        0.000000        0.000000     
   0.000000        0.000000        0.000000        0.000000        0.000000        0.000000        0.000000        0.000000        0.000000        0.000000        0.000000     
   0.000000        0.000000        0.000000        0.000000        0.000000        0.000000        0.000000        0.000000        0.000000        0.000000        0.000000     
   0.000000        0.000000        0.000000        0.000000        0.000000        0.000000        0.000000        0.000000        0.000000        0.000000        0.000000     
   0.000000        0.000000        0.000000        0.000000        0.000000        0.000000        0.000000        0.000000        0.000000        0.000000        0.000000     
   0.000000        0.000000        0.000000        0.000000        0.000000        0.000000        0.000000        0.000000        0.000000        0.000000        0.000000     
   0.000000        0.000000        0.000000        0.000000        0.000000        0.000000        0.000000        0.000000        0.000000        0.000000        0.000000     
   0.000000        0.000000        0.000000        0.000000        0.000000        0.000000        0.000000        0.000000        0.000000        0.000000        0.000000     
   0.000000        0.000000        0.000000        0.000000        0.000000        0.000000        0.000000        0.000000        0.000000        0.000000        0.000000     
   0.000000        0.000000        0.000000        0.000000        0.000000        0.000000        0.000000        0.000000        0.000000        0.000000        0.000000     
   0.000000        0.000000        0.000000        0.000000        0.000000        0.000000        0.000000        0.000000        0.000000        0.000000        0.000000     
   0.000000        0.000000        0.000000        0.000000        0.000000        0.000000        0.000000        0.000000        0.000000        0.000000        0.000000     
   0.000000        0.000000        0.000000        0.000000        0.000000        0.000000        0.000000        0.000000        0.000000        0.000000        0.000000     
   0.000000        0.000000        0.000000        0.000000        0.000000        0.000000        0.000000        0.000000        0.000000        0.000000        0.000000     
   0.000000        0.000000        0.000000        0.000000        0.000000        0.000000        0.000000        0.000000        0.000000        0.000000        0.000000     
   0.000000        0.000000        0.000000        0.000000        0.000000        0.000000        0.000000        0.000000        0.000000        0.000000        0.000000     
   0.000000        0.000000        0.000000        0.000000        0.000000        0.000000        0.000000        0.000000        0.000000        0.000000        0.000000     
   0.000000        0.000000        0.000000        0.000000        0.000000        0.000000        0.000000        0.000000        0.000000        0.000000        0.000000     
   0.000000        0.000000        0.000000        0.000000        0.000000        0.000000        0.000000        0.000000        0.000000        0.000000        0.000000     
   0.000000        0.000000        0.000000        0.000000        0.000000        0.000000        0.000000        0.000000        0.000000        0.000000        0.000000     
   0.000000        0.000000        0.000000        0.000000        0.000000        0.000000        0.000000        0.000000        0.000000        0.000000        0.000000     
   0.000000        0.000000        0.000000        0.000000        0.000000        0.000000        0.000000        0.000000        0.000000        0.000000        0.000000     
   0.000000        0.000000        0.000000        0.000000        0.000000        0.000000        0.000000        0.000000        0.000000        0.000000        0.000000     
   0.000000        0.000000        0.000000        0.000000        0.000000        0.000000        0.000000        0.000000        0.000000        0.000000        0.000000     
   0.000000        0.000000        0.000000        0.000000        0.000000        0.000000        0.000000        0.000000        0.000000        0.000000        0.000000     
   0.000000        0.000000        0.000000        0.000000        0.000000        0.000000        0.000000        0.000000        0.000000        0.000000        0.000000     
   0.000000        0.000000        0.000000        0.000000        0.000000        0.000000        0.000000        0.000000        0.000000        0.000000        0.000000     
   0.000000        0.000000        0.000000        0.000000        0.000000        0.000000        0.000000        0.000000        0.000000        0.000000        0.000000     
   0.000000        0.000000        0.000000        0.000000        0.000000        0.000000        0.000000        0.000000        0.000000        0.000000        0.000000     
   0.000000        0.000000        0.000000        0.000000        0.000000        0.000000        0.000000        0.000000        0.000000        0.000000        0.000000     
   0.000000        0.000000        0.000000        0.000000        0.000000        0.000000        0.000000        0.000000        0.000000        0.000000        0.000000     
   0.000000        0.000000        0.000000        0.000000        0.000000        0.000000        0.000000        0.000000        0.000000        0.000000        0.000000     
   0.000000        0.000000        0.000000        0.000000        0.000000        0.000000        0.000000        0.000000        0.000000        0.000000        0.000000     
   0.000000        0.000000        0.000000        0.000000        0.000000        0.000000        0.000000        0.000000        0.000000        0.000000        0.000000     
   2.173523        0.000000        0.000000        0.000000        0.000000        0.000000        0.000000        0.000000        0.000000        0.000000        0.000000     
   0.000000        0.000000        0.000000        0.000000        0.000000        0.000000        0.000000        0.000000        0.000000        0.000000        0.000000     
   0.000000        0.000000        0.000000        0.000000        0.000000        0.000000        0.000000        0.000000        0.000000        0.000000        0.000000     
   0.000000        0.000000        0.000000        0.000000        0.000000        0.000000        0.000000        0.000000        0.000000        0.000000        0.000000     
   0.000000        0.000000        0.000000        0.000000        0.000000        0.000000        0.000000        0.000000        0.000000        0.000000        0.000000     
   0.000000        0.000000        0.000000        0.000000        0.000000        0.000000        0.000000        0.000000        0.000000        0.000000        0.000000     
   0.000000        0.000000        0.000000        0.000000        0.000000        0.000000        0.000000        0.000000        0.000000        0.000000        0.000000     
 -0.2260099        0.000000       0.1107980E-001  0.2444755E-001   0.000000        0.000000        0.000000        0.000000        0.000000        0.000000        0.000000     
  0.6661237E-002   1.777762        1.789671        1.797502        0.000000        0.000000        0.000000        0.000000        0.000000        0.000000        0.000000     
   1.816861        1.919050        1.914953        1.964585        0.000000        0.000000        0.000000        0.000000        0.000000        0.000000        0.000000     
   0.000000        0.000000        0.000000        0.000000        0.000000        0.000000        0.000000        0.000000        0.000000        0.000000        0.000000     
   0.000000        0.000000        0.000000        0.000000        0.000000        0.000000        0.000000        0.000000        0.000000        0.000000        0.000000     
   0.000000        0.000000        0.000000        0.000000        0.000000        0.000000        0.000000        0.000000        0.000000        0.000000        0.000000     
 -0.4067969      -0.1217009      -0.7872479E-001 -0.4159092E-001  0.8488876E-002   0.000000        0.000000        0.000000        0.000000        0.000000        0.000000     
 -0.1242729       0.5106206E-001  0.6687010E-001  0.7670343E-001   1.391377        0.000000        0.000000        0.000000        0.000000        0.000000        0.000000     
  0.2733685        1.469918        1.510542        1.538960        0.000000        0.000000        0.000000        0.000000        0.000000        0.000000        0.000000     
   0.000000        0.000000        0.000000        0.000000        0.000000        0.000000        0.000000        0.000000        0.000000        0.000000        0.000000     
   0.000000        0.000000        0.000000        0.000000        0.000000        0.000000        0.000000        0.000000        0.000000        0.000000        0.000000     
   0.000000        0.000000        0.000000        0.000000        0.000000        0.000000        0.000000        0.000000        0.000000        0.000000        0.000000     
   0.000000        0.000000        0.000000        0.000000        0.000000        0.000000        0.000000        0.000000        0.000000        0.000000        0.000000     
   0.000000      -0.1912892      -0.1211786      -0.6256639E-001  0.3165508E-001  0.9266733        0.000000        0.000000        0.000000        0.000000        0.000000     
   0.000000       0.1295634       0.1577300       0.1715055        1.057177        1.011465        0.000000        0.000000        0.000000        0.000000        0.000000     
   0.000000        0.000000        0.000000        0.000000        0.000000        0.000000        0.000000        0.000000        0.000000        0.000000        0.000000     
   0.000000        0.000000        0.000000        0.000000        0.000000        0.000000        0.000000        0.000000        0.000000        0.000000        0.000000     
   0.000000        0.000000        0.000000        0.000000        0.000000        0.000000        0.000000        0.000000        0.000000        0.000000        0.000000     
   0.000000        0.000000        0.000000        0.000000        0.000000        0.000000        0.000000        0.000000        0.000000        0.000000        0.000000     
   0.000000        0.000000        0.000000        0.000000        0.000000        0.000000        0.000000        0.000000        0.000000        0.000000        0.000000     
   0.000000        0.000000        0.000000        0.000000        0.000000        0.000000        0.000000        0.000000        0.000000        0.000000        0.000000     
   0.000000        0.000000        0.000000        0.000000        0.000000        0.000000        0.000000        0.000000        0.000000        0.000000        0.000000     
   0.000000        0.000000        0.000000        0.000000        0.000000        0.000000        0.000000        0.000000        0.000000        0.000000        0.000000     
   0.000000        0.000000        0.000000        0.000000        0.000000        0.000000        0.000000        0.000000        0.000000        0.000000        0.000000     
   0.000000        0.000000        0.000000        0.000000        0.000000        0.000000        0.000000        0.000000        0.000000        0.000000        0.000000     
   0.000000        0.000000        0.000000        0.000000        0.000000        0.000000        0.000000        0.000000        0.000000        0.000000        0.000000     
   0.000000        0.000000        0.000000        0.000000        0.000000        0.000000        0.000000        0.000000        0.000000        0.000000        0.000000     
   0.000000        0.000000        0.000000        0.000000        0.000000        0.000000        0.000000        0.000000        0.000000        0.000000        0.000000     
   0.000000        0.000000        0.000000        0.000000        0.000000        0.000000        0.000000        0.000000        0.000000        0.000000        0.000000     
   0.000000        0.000000        0.000000        0.000000        0.000000        0.000000        0.000000        0.000000        0.000000        0.000000        0.000000     
   0.000000        0.000000        0.000000        0.000000        0.000000        0.000000        0.000000        0.000000        0.000000        0.000000        0.000000     
   0.000000        0.000000        0.000000        0.000000        0.000000        0.000000        0.000000        0.000000        0.000000        0.000000        0.000000     
   0.000000        0.000000        0.000000        0.000000        0.000000        0.000000        0.000000        0.000000        0.000000        0.000000        0.000000     
   0.000000        0.000000        0.000000        0.000000        0.000000        0.000000        0.000000        0.000000        0.000000        0.000000        0.000000     
   0.000000        0.000000        0.000000        0.000000        0.000000        0.000000        0.000000        0.000000        0.000000        0.000000        0.000000     
   0.000000        0.000000        0.000000        0.000000        0.000000        0.000000        0.000000        0.000000        0.000000        0.000000        0.000000     
   0.000000        0.000000        0.000000        0.000000        0.000000        0.000000        0.000000        0.000000        0.000000        0.000000        0.000000     
   0.000000        0.000000        0.000000        0.000000        0.000000        0.000000        0.000000        0.000000        0.000000        0.000000        0.000000     
   0.000000        0.000000        0.000000        0.000000        0.000000        0.000000        0.000000        0.000000        0.000000        0.000000        0.000000     
   0.000000        0.000000        0.000000        0.000000        0.000000        0.000000        0.000000        0.000000        0.000000        0.000000        0.000000     
   0.000000        0.000000        0.000000        0.000000        0.000000        0.000000        0.000000        0.000000        0.000000        0.000000        0.000000     
   0.000000        0.000000        0.000000        0.000000        0.000000        0.000000        0.000000        0.000000        0.000000        0.000000        0.000000     
   0.000000        0.000000        0.000000        0.000000        0.000000        0.000000        0.000000        0.000000        0.000000        0.000000        0.000000     
   0.000000        0.000000        0.000000        0.000000        0.000000        0.000000        0.000000        0.000000        0.000000        0.000000        0.000000     
   0.000000        0.000000        0.000000        0.000000        0.000000        0.000000        0.000000        0.000000        0.000000        0.000000        0.000000     
   0.000000        0.000000        0.000000        0.000000        0.000000        0.000000        0.000000        0.000000        0.000000        0.000000        0.000000     
   0.000000        0.000000        0.000000        0.000000        0.000000        0.000000        0.000000        0.000000        0.000000        0.000000        0.000000     
   0.000000        0.000000        0.000000        0.000000        0.000000        0.000000        0.000000        0.000000        0.000000        0.000000        0.000000     
   0.000000        0.000000        0.000000        0.000000        0.000000        0.000000        0.000000        0.000000        0.000000        0.000000        0.000000     
   0.000000        0.000000        0.000000        0.000000        0.000000        0.000000        0.000000        0.000000        0.000000        0.000000        0.000000     
   0.000000        0.000000        0.000000        0.000000        0.000000        0.000000        0.000000        0.000000        0.000000        0.000000        0.000000     
