   4.841996        12.10499        15.73649        19.36799        33.89397        48.41996        87.15593        145.2599        435.7797        1016.819        1307.339     
   4.841996        12.10499        15.73649        19.36799        33.89397        48.41996        87.15593        145.2599        435.7797        1016.819        1307.339     
   4.841996        12.10499        15.73649        19.36799        33.89397        48.41996        87.15593        145.2599        435.7797        1016.819        1307.339     
   4.841996        12.10499        15.73649        19.36799        33.89397        48.41996        87.15593        145.2599        435.7797        1016.819        1307.339     
   4.841996        12.10499        15.73649        19.36799        33.89397        48.41996        87.15593        145.2599        435.7797        1016.819        1307.339     
   4.841996        12.10499        15.73649        19.36799        33.89397        48.41996        87.15593        145.2599        435.7797        1016.819        1307.339     
   4.841996        12.10499        15.73649        19.36799        33.89397        48.41996        87.15593        145.2599        435.7797        1016.819        1307.339     
   4.841996        12.10499        15.73649        19.36799        33.89397        48.41996        87.15593        145.2599        435.7797        1016.819        1307.339     
   4.841996        12.10499        15.73649        19.36799        33.89397        48.41996        87.15593        145.2599        435.7797        1016.819        1307.339     
   4.841996        12.10499        15.73649        19.36799        33.89397        48.41996        87.15593        145.2599        435.7797        1016.819        1307.339     
   4.841996        12.10499        15.73649        19.36799        33.89397        48.41996        87.15593        145.2599        435.7797        1016.819        1307.339     
   4.841996        12.10499        15.73649        19.36799        33.89397        48.41996        87.15593        145.2599        435.7797        1016.819        1307.339     
   4.841996        12.10499        15.73649        19.36799        33.89397        48.41996        87.15593        145.2599        435.7797        1016.819        1307.339     
   4.841996        12.10499        15.73649        19.36799        33.89397        48.41996        87.15593        145.2599        435.7797        1016.819        1307.339     
   4.841996        12.10499        15.73649        19.36799        33.89397        48.41996        87.15593        145.2599        435.7797        1016.819        1307.339     
   4.841996        12.10499        15.73649        19.36799        33.89397        48.41996        87.15593        145.2599        435.7797        1016.819        1307.339     
   4.841996        12.10499        15.73649        19.36799        33.89397        48.41996        87.15593        145.2599        435.7797        1016.819        1307.339     
   4.841996        12.10499        15.73649        19.36799        33.89397        48.41996        87.15593        145.2599        435.7797        1016.819        1307.339     
   4.841996        12.10499        15.73649        19.36799        33.89397        48.41996        87.15593        145.2599        435.7797        1016.819        1307.339     
   4.841996        12.10499        15.73649        19.36799        33.89397        48.41996        87.15593        145.2599        435.7797        1016.819        1307.339     
   4.841996        12.10499        15.73649        19.36799        33.89397        48.41996        87.15593        145.2599        435.7797        1016.819        1307.339     
   4.841996        12.10499        15.73649        19.36799        33.89397        48.41996        87.15593        145.2599        435.7797        1016.819        1307.339     
   4.841996        12.10499        15.73649        19.36799        33.89397        48.41996        87.15593        145.2599        435.7797        1016.819        1307.339     
   4.841996        12.10499        15.73649        19.36799        33.89397        48.41996        87.15593        145.2599        435.7797        1016.819        1307.339     
   4.841996        12.10499        15.73649        19.36799        33.89397        48.41996        87.15593        145.2599        435.7797        1016.819        1307.339     
   4.841996        12.10499        15.73649        19.36799        33.89397        48.41996        87.15593        145.2599        435.7797        1016.819        1307.339     
   4.841996        12.10499        15.73649        19.36799        33.89397        48.41996        87.15593        145.2599        435.7797        1016.819        1307.339     
   4.841996        12.10499        15.73649        19.36799        33.89397        48.41996        87.15593        145.2599        435.7797        1016.819        1307.339     
   4.841996        12.10499        15.73649        19.36799        33.89397        48.41996        87.15593        145.2599        435.7797        1016.819        1307.339     
   4.841996        12.10499        15.73649        19.36799        33.89397        48.41996        87.15593        145.2599        435.7797        1016.819        1307.339     
   4.841996        12.10499        15.73649        19.36799        33.89397        48.41996        87.15593        145.2599        435.7797        1016.819        1307.339     
   4.841996        12.10499        15.73649        19.36799        33.89397        48.41996        87.15593        145.2599        435.7797        1016.819        1307.339     
   4.841996        12.10499        15.73649        19.36799        33.89397        48.41996        87.15593        145.2599        435.7797        1016.819        1307.339     
   4.841996        12.10499        15.73649        19.36799        33.89397        48.41996        87.15593        145.2599        435.7797        1016.819        1307.339     
   4.841996        12.10499        15.73649        19.36799        33.89397        48.41996        87.15593        145.2599        435.7797        1016.819        1307.339     
   4.841996        12.10499        15.73649        19.36799        33.89397        48.41996        87.15593        145.2599        435.7797        1016.819        1307.339     
