{
  "_metadata": {
    "qualikiz_tools_version": "1.4.dev6+ga735788",
    "qualikiz_version": "7407b22a2d1445457ccafbdc71b647451aa7a071"
  },
  "pfe_cm": {
    "name": "pfe_cm",
    "supertype": "qlk_output_meth_0",
    "subset": "output",
    "meth": 0,
    "sep": false,
    "type": "real(dbl)",
    "ndims": 2,
    "normalized": false
  },
  "pfi_cm": {
    "name": "pfi_cm",
    "supertype": "qlk_output_meth_0",
    "subset": "output",
    "meth": 0,
    "sep": false,
    "type": "real(dbl)",
    "ndims": 3,
    "normalized": false
  },
  "efe_cm": {
    "name": "efe_cm",
    "supertype": "qlk_output_meth_0",
    "subset": "output",
    "meth": 0,
    "sep": false,
    "type": "real(dbl)",
    "ndims": 2,
    "normalized": false
  },
  "efi_cm": {
    "name": "efi_cm",
    "supertype": "qlk_output_meth_0",
    "subset": "output",
    "meth": 0,
    "sep": false,
    "type": "real(dbl)",
    "ndims": 3,
    "normalized": false
  },
  "vfi_cm": {
    "name": "vfi_cm",
    "supertype": "qlk_output_meth_0",
    "subset": "output",
    "meth": 0,
    "sep": false,
    "type": "real(dbl)",
    "ndims": 3,
    "normalized": false
  },
  "ecoefs": {
    "name": "ecoefs",
    "supertype": "qlk_output_meth_0",
    "subset": "output",
    "meth": 0,
    "sep": false,
    "type": "real(dbl)",
    "ndims": 3,
    "normalized": false
  },
  "npol": {
    "name": "npol",
    "supertype": "qlk_output_meth_0",
    "subset": "output",
    "meth": 0,
    "sep": false,
    "type": "real(dbl)",
    "ndims": 3,
    "normalized": false
  },
  "cftrans": {
    "name": "cftrans",
    "supertype": "qlk_output_meth_0",
    "subset": "output",
    "meth": 0,
    "sep": false,
    "type": "real(dbl)",
    "ndims": 3,
    "normalized": false
  },
  "phi": {
    "name": "phi",
    "supertype": "qlk_output_meth_0",
    "subset": "output",
    "meth": 0,
    "sep": false,
    "type": "real(dbl)",
    "ndims": 2,
    "normalized": false
  },
  "Nustar": {
    "name": "Nustar",
    "supertype": "qlk_output_meth_0",
    "subset": "output",
    "meth": 0,
    "sep": false,
    "type": "real(dbl)",
    "ndims": 1,
    "normalized": false
  },
  "Zeff": {
    "name": "Zeff",
    "supertype": "qlk_output_meth_0",
    "subset": "output",
    "meth": 0,
    "sep": false,
    "type": "real(dbl)",
    "ndims": 1,
    "normalized": false
  },
  "gam": {
    "name": "gam",
    "supertype": "qlk_output_meth_0_sep_0",
    "subset": "output",
    "meth": 0,
    "sep": true,
    "type": "real(dbl)",
    "ndims": 3,
    "normalized": true
  },
  "ome": {
    "name": "ome",
    "supertype": "qlk_output_meth_0_sep_0",
    "subset": "output",
    "meth": 0,
    "sep": true,
    "type": "real(dbl)",
    "ndims": 3,
    "normalized": true
  },
  "pfe": {
    "name": "pfe",
    "supertype": "qlk_output_meth_0_sep_0",
    "subset": "output",
    "meth": 0,
    "sep": true,
    "type": "real(dbl)",
    "ndims": 1,
    "normalized": true
  },
  "pfi": {
    "name": "pfi",
    "supertype": "qlk_output_meth_0_sep_0",
    "subset": "output",
    "meth": 0,
    "sep": true,
    "type": "real(dbl)",
    "ndims": 2,
    "normalized": true
  },
  "efe": {
    "name": "efe",
    "supertype": "qlk_output_meth_0_sep_0",
    "subset": "output",
    "meth": 0,
    "sep": true,
    "type": "real(dbl)",
    "ndims": 1,
    "normalized": true
  },
  "efi": {
    "name": "efi",
    "supertype": "qlk_output_meth_0_sep_0",
    "subset": "output",
    "meth": 0,
    "sep": true,
    "type": "real(dbl)",
    "ndims": 2,
    "normalized": true
  },
  "vfi": {
    "name": "vfi",
    "supertype": "qlk_output_meth_0_sep_0",
    "subset": "output",
    "meth": 0,
    "sep": true,
    "type": "real(dbl)",
    "ndims": 2,
    "normalized": true
  },
  "efeETG": {
    "name": "efeETG",
    "supertype": "qlk_output_meth_0_sep_0",
    "subset": "output",
    "meth": 0,
    "sep": true,
    "type": "real(dbl)",
    "ndims": 1,
    "normalized": true
  },
  "efeITG": {
    "name": "efeITG",
    "supertype": "qlk_output_meth_0_sep_1",
    "subset": "output",
    "meth": 0,
    "sep": true,
    "type": "real(dbl)",
    "ndims": 1,
    "normalized": true
  },
  "efeTEM": {
    "name": "efeTEM",
    "supertype": "qlk_output_meth_0_sep_1",
    "subset": "output",
    "meth": 0,
    "sep": true,
    "type": "real(dbl)",
    "ndims": 1,
    "normalized": true
  },
  "efiITG": {
    "name": "efiITG",
    "supertype": "qlk_output_meth_0_sep_1",
    "subset": "output",
    "meth": 0,
    "sep": true,
    "type": "real(dbl)",
    "ndims": 2,
    "normalized": true
  },
  "efiTEM": {
    "name": "efiTEM",
    "supertype": "qlk_output_meth_0_sep_1",
    "subset": "output",
    "meth": 0,
    "sep": true,
    "type": "real(dbl)",
    "ndims": 2,
    "normalized": true
  },
  "pfeITG": {
    "name": "pfeITG",
    "supertype": "qlk_output_meth_0_sep_1",
    "subset": "output",
    "meth": 0,
    "sep": true,
    "type": "real(dbl)",
    "ndims": 1,
    "normalized": true
  },
  "pfeTEM": {
    "name": "pfeTEM",
    "supertype": "qlk_output_meth_0_sep_1",
    "subset": "output",
    "meth": 0,
    "sep": true,
    "type": "real(dbl)",
    "ndims": 1,
    "normalized": true
  },
  "pfiITG": {
    "name": "pfiITG",
    "supertype": "qlk_output_meth_0_sep_1",
    "subset": "output",
    "meth": 0,
    "sep": true,
    "type": "real(dbl)",
    "ndims": 2,
    "normalized": true
  },
  "pfiTEM": {
    "name": "pfiTEM",
    "supertype": "qlk_output_meth_0_sep_1",
    "subset": "output",
    "meth": 0,
    "sep": true,
    "type": "real(dbl)",
    "ndims": 2,
    "normalized": true
  },
  "vfiITG": {
    "name": "vfiITG",
    "supertype": "qlk_output_meth_0_sep_1",
    "subset": "output",
    "meth": 0,
    "sep": true,
    "type": "real(dbl)",
    "ndims": 2,
    "normalized": true
  },
  "vfiTEM": {
    "name": "vfiTEM",
    "supertype": "qlk_output_meth_0_sep_1",
    "subset": "output",
    "meth": 0,
    "sep": true,
    "type": "real(dbl)",
    "ndims": 2,
    "normalized": true
  },
  "cke": {
    "name": "cke",
    "supertype": "qlk_output_meth_1",
    "subset": "output",
    "meth": 1,
    "sep": false,
    "type": "real(dbl)",
    "ndims": 1,
    "normalized": false
  },
  "cki": {
    "name": "cki",
    "supertype": "qlk_output_meth_1",
    "subset": "output",
    "meth": 1,
    "sep": false,
    "type": "real(dbl)",
    "ndims": 2,
    "normalized": false
  },
  "dfe": {
    "name": "dfe",
    "supertype": "qlk_output_meth_1_sep_0",
    "subset": "output",
    "meth": 1,
    "sep": true,
    "type": "real(dbl)",
    "ndims": 1,
    "normalized": true
  },
  "dfi": {
    "name": "dfi",
    "supertype": "qlk_output_meth_1_sep_0",
    "subset": "output",
    "meth": 1,
    "sep": true,
    "type": "real(dbl)",
    "ndims": 2,
    "normalized": true
  },
  "vte": {
    "name": "vte",
    "supertype": "qlk_output_meth_1_sep_0",
    "subset": "output",
    "meth": 1,
    "sep": true,
    "type": "real(dbl)",
    "ndims": 1,
    "normalized": true
  },
  "vti": {
    "name": "vti",
    "supertype": "qlk_output_meth_1_sep_0",
    "subset": "output",
    "meth": 1,
    "sep": true,
    "type": "real(dbl)",
    "ndims": 2,
    "normalized": true
  },
  "vce": {
    "name": "vce",
    "supertype": "qlk_output_meth_1_sep_0",
    "subset": "output",
    "meth": 1,
    "sep": true,
    "type": "real(dbl)",
    "ndims": 1,
    "normalized": true
  },
  "vci": {
    "name": "vci",
    "supertype": "qlk_output_meth_1_sep_0",
    "subset": "output",
    "meth": 1,
    "sep": true,
    "type": "real(dbl)",
    "ndims": 2,
    "normalized": true
  },
  "vri": {
    "name": "vri",
    "supertype": "qlk_output_meth_1_sep_0",
    "subset": "output",
    "meth": 1,
    "sep": true,
    "type": "real(dbl)",
    "ndims": 2,
    "normalized": true
  },
  "dfeITG": {
    "name": "dfeITG",
    "supertype": "qlk_output_meth_1_sep_1",
    "subset": "output",
    "meth": 1,
    "sep": true,
    "type": "real(dbl)",
    "ndims": 1,
    "normalized": true
  },
  "dfeTEM": {
    "name": "dfeTEM",
    "supertype": "qlk_output_meth_1_sep_1",
    "subset": "output",
    "meth": 1,
    "sep": true,
    "type": "real(dbl)",
    "ndims": 1,
    "normalized": true
  },
  "dfiITG": {
    "name": "dfiITG",
    "supertype": "qlk_output_meth_1_sep_1",
    "subset": "output",
    "meth": 1,
    "sep": true,
    "type": "real(dbl)",
    "ndims": 2,
    "normalized": true
  },
  "dfiTEM": {
    "name": "dfiTEM",
    "supertype": "qlk_output_meth_1_sep_1",
    "subset": "output",
    "meth": 1,
    "sep": true,
    "type": "real(dbl)",
    "ndims": 2,
    "normalized": true
  },
  "vriITG": {
    "name": "vriITG",
    "supertype": "qlk_output_meth_1_sep_1",
    "subset": "output",
    "meth": 1,
    "sep": true,
    "type": "real(dbl)",
    "ndims": 2,
    "normalized": true
  },
  "vriTEM": {
    "name": "vriTEM",
    "supertype": "qlk_output_meth_1_sep_1",
    "subset": "output",
    "meth": 1,
    "sep": true,
    "type": "real(dbl)",
    "ndims": 2,
    "normalized": true
  },
  "vteITG": {
    "name": "vteITG",
    "supertype": "qlk_output_meth_1_sep_1",
    "subset": "output",
    "meth": 1,
    "sep": true,
    "type": "real(dbl)",
    "ndims": 1,
    "normalized": true
  },
  "vteTEM": {
    "name": "vteTEM",
    "supertype": "qlk_output_meth_1_sep_1",
    "subset": "output",
    "meth": 1,
    "sep": true,
    "type": "real(dbl)",
    "ndims": 1,
    "normalized": true
  },
  "vtiITG": {
    "name": "vtiITG",
    "supertype": "qlk_output_meth_1_sep_1",
    "subset": "output",
    "meth": 1,
    "sep": true,
    "type": "real(dbl)",
    "ndims": 2,
    "normalized": true
  },
  "vtiTEM": {
    "name": "vtiTEM",
    "supertype": "qlk_output_meth_1_sep_1",
    "subset": "output",
    "meth": 1,
    "sep": true,
    "type": "real(dbl)",
    "ndims": 2,
    "normalized": true
  },
  "vceITG": {
    "name": "vceITG",
    "supertype": "qlk_output_meth_1_sep_1",
    "subset": "output",
    "meth": 1,
    "sep": true,
    "type": "real(dbl)",
    "ndims": 1,
    "normalized": true
  },
  "vceTEM": {
    "name": "vceTEM",
    "supertype": "qlk_output_meth_1_sep_1",
    "subset": "output",
    "meth": 1,
    "sep": true,
    "type": "real(dbl)",
    "ndims": 1,
    "normalized": true
  },
  "vciITG": {
    "name": "vciITG",
    "supertype": "qlk_output_meth_1_sep_1",
    "subset": "output",
    "meth": 1,
    "sep": true,
    "type": "real(dbl)",
    "ndims": 2,
    "normalized": true
  },
  "vciTEM": {
    "name": "vciTEM",
    "supertype": "qlk_output_meth_1_sep_1",
    "subset": "output",
    "meth": 1,
    "sep": true,
    "type": "real(dbl)",
    "ndims": 2,
    "normalized": true
  },
  "ceke": {
    "name": "ceke",
    "supertype": "qlk_output_meth_2",
    "subset": "output",
    "meth": 2,
    "sep": false,
    "type": "real(dbl)",
    "ndims": 1,
    "normalized": false
  },
  "ceki": {
    "name": "ceki",
    "supertype": "qlk_output_meth_2",
    "subset": "output",
    "meth": 2,
    "sep": false,
    "type": "real(dbl)",
    "ndims": 2,
    "normalized": false
  },
  "chiee": {
    "name": "chiee",
    "supertype": "qlk_output_meth_2_sep_0",
    "subset": "output",
    "meth": 2,
    "sep": true,
    "type": "real(dbl)",
    "ndims": 1,
    "normalized": true
  },
  "chiei": {
    "name": "chiei",
    "supertype": "qlk_output_meth_2_sep_0",
    "subset": "output",
    "meth": 2,
    "sep": true,
    "type": "real(dbl)",
    "ndims": 2,
    "normalized": true
  },
  "vece": {
    "name": "vece",
    "supertype": "qlk_output_meth_2_sep_0",
    "subset": "output",
    "meth": 2,
    "sep": true,
    "type": "real(dbl)",
    "ndims": 1,
    "normalized": true
  },
  "veci": {
    "name": "veci",
    "supertype": "qlk_output_meth_2_sep_0",
    "subset": "output",
    "meth": 2,
    "sep": true,
    "type": "real(dbl)",
    "ndims": 2,
    "normalized": true
  },
  "vene": {
    "name": "vene",
    "supertype": "qlk_output_meth_2_sep_0",
    "subset": "output",
    "meth": 2,
    "sep": true,
    "type": "real(dbl)",
    "ndims": 1,
    "normalized": true
  },
  "veni": {
    "name": "veni",
    "supertype": "qlk_output_meth_2_sep_0",
    "subset": "output",
    "meth": 2,
    "sep": true,
    "type": "real(dbl)",
    "ndims": 2,
    "normalized": true
  },
  "veri": {
    "name": "veri",
    "supertype": "qlk_output_meth_2_sep_0",
    "subset": "output",
    "meth": 2,
    "sep": true,
    "type": "real(dbl)",
    "ndims": 2,
    "normalized": true
  },
  "chieeITG": {
    "name": "chieeITG",
    "supertype": "qlk_output_meth_2_sep_1",
    "subset": "output",
    "meth": 2,
    "sep": true,
    "type": "real(dbl)",
    "ndims": 1,
    "normalized": true
  },
  "chieeTEM": {
    "name": "chieeTEM",
    "supertype": "qlk_output_meth_2_sep_1",
    "subset": "output",
    "meth": 2,
    "sep": true,
    "type": "real(dbl)",
    "ndims": 1,
    "normalized": true
  },
  "chieiITG": {
    "name": "chieiITG",
    "supertype": "qlk_output_meth_2_sep_1",
    "subset": "output",
    "meth": 2,
    "sep": true,
    "type": "real(dbl)",
    "ndims": 2,
    "normalized": true
  },
  "chieiTEM": {
    "name": "chieiTEM",
    "supertype": "qlk_output_meth_2_sep_1",
    "subset": "output",
    "meth": 2,
    "sep": true,
    "type": "real(dbl)",
    "ndims": 2,
    "normalized": true
  },
  "veceITG": {
    "name": "veceITG",
    "supertype": "qlk_output_meth_2_sep_1",
    "subset": "output",
    "meth": 2,
    "sep": true,
    "type": "real(dbl)",
    "ndims": 1,
    "normalized": true
  },
  "veceTEM": {
    "name": "veceTEM",
    "supertype": "qlk_output_meth_2_sep_1",
    "subset": "output",
    "meth": 2,
    "sep": true,
    "type": "real(dbl)",
    "ndims": 1,
    "normalized": true
  },
  "veciITG": {
    "name": "veciITG",
    "supertype": "qlk_output_meth_2_sep_1",
    "subset": "output",
    "meth": 2,
    "sep": true,
    "type": "real(dbl)",
    "ndims": 2,
    "normalized": true
  },
  "veciTEM": {
    "name": "veciTEM",
    "supertype": "qlk_output_meth_2_sep_1",
    "subset": "output",
    "meth": 2,
    "sep": true,
    "type": "real(dbl)",
    "ndims": 2,
    "normalized": true
  },
  "veneITG": {
    "name": "veneITG",
    "supertype": "qlk_output_meth_2_sep_1",
    "subset": "output",
    "meth": 2,
    "sep": true,
    "type": "real(dbl)",
    "ndims": 1,
    "normalized": true
  },
  "veneTEM": {
    "name": "veneTEM",
    "supertype": "qlk_output_meth_2_sep_1",
    "subset": "output",
    "meth": 2,
    "sep": true,
    "type": "real(dbl)",
    "ndims": 1,
    "normalized": true
  },
  "veniITG": {
    "name": "veniITG",
    "supertype": "qlk_output_meth_2_sep_1",
    "subset": "output",
    "meth": 2,
    "sep": true,
    "type": "real(dbl)",
    "ndims": 2,
    "normalized": true
  },
  "veniTEM": {
    "name": "veniTEM",
    "supertype": "qlk_output_meth_2_sep_1",
    "subset": "output",
    "meth": 2,
    "sep": true,
    "type": "real(dbl)",
    "ndims": 2,
    "normalized": true
  },
  "veriITG": {
    "name": "veriITG",
    "supertype": "qlk_output_meth_2_sep_1",
    "subset": "output",
    "meth": 2,
    "sep": true,
    "type": "real(dbl)",
    "ndims": 2,
    "normalized": true
  },
  "veriTEM": {
    "name": "veriTEM",
    "supertype": "qlk_output_meth_2_sep_1",
    "subset": "output",
    "meth": 2,
    "sep": true,
    "type": "real(dbl)",
    "ndims": 2,
    "normalized": true
  },
  "chieeETG": {
    "name": "chieeETG",
    "supertype": "qlk_output_meth_2_sep_1",
    "subset": "output",
    "meth": 2,
    "sep": true,
    "type": "real(dbl)",
    "ndims": 1,
    "normalized": true
  },
  "veceETG": {
    "name": "veceETG",
    "supertype": "qlk_output_meth_2_sep_1",
    "subset": "output",
    "meth": 2,
    "sep": true,
    "type": "real(dbl)",
    "ndims": 1,
    "normalized": true
  },
  "veneETG": {
    "name": "veneETG",
    "supertype": "qlk_output_meth_2_sep_1",
    "subset": "output",
    "meth": 2,
    "sep": true,
    "type": "real(dbl)",
    "ndims": 1,
    "normalized": true
  },
  "Lcirce": {
    "name": "Lcirce",
    "supertype": "qlk_primi_meth_0",
    "subset": "primi",
    "meth": 0,
    "sep": false,
    "type": "real(dbl)",
    "ndims": 3,
    "normalized": false
  },
  "Lcirci": {
    "name": "Lcirci",
    "supertype": "qlk_primi_meth_0",
    "subset": "primi",
    "meth": 0,
    "sep": false,
    "type": "real(dbl)",
    "ndims": 4,
    "normalized": false
  },
  "Lecirce": {
    "name": "Lecirce",
    "supertype": "qlk_primi_meth_0",
    "subset": "primi",
    "meth": 0,
    "sep": false,
    "type": "real(dbl)",
    "ndims": 3,
    "normalized": false
  },
  "Lecirci": {
    "name": "Lecirci",
    "supertype": "qlk_primi_meth_0",
    "subset": "primi",
    "meth": 0,
    "sep": false,
    "type": "real(dbl)",
    "ndims": 4,
    "normalized": false
  },
  "Lepiege": {
    "name": "Lepiege",
    "supertype": "qlk_primi_meth_0",
    "subset": "primi",
    "meth": 0,
    "sep": false,
    "type": "real(dbl)",
    "ndims": 3,
    "normalized": false
  },
  "Lpiege": {
    "name": "Lpiege",
    "supertype": "qlk_primi_meth_0",
    "subset": "primi",
    "meth": 0,
    "sep": false,
    "type": "real(dbl)",
    "ndims": 3,
    "normalized": false
  },
  "Lpiegi": {
    "name": "Lpiegi",
    "supertype": "qlk_primi_meth_0",
    "subset": "primi",
    "meth": 0,
    "sep": false,
    "type": "real(dbl)",
    "ndims": 4,
    "normalized": false
  },
  "Lepiegi": {
    "name": "Lepiegi",
    "supertype": "qlk_primi_meth_0",
    "subset": "primi",
    "meth": 0,
    "sep": false,
    "type": "real(dbl)",
    "ndims": 4,
    "normalized": false
  },
  "Lvcirci": {
    "name": "Lvcirci",
    "supertype": "qlk_primi_meth_0",
    "subset": "primi",
    "meth": 0,
    "sep": false,
    "type": "real(dbl)",
    "ndims": 4,
    "normalized": false
  },
  "Lvpiegi": {
    "name": "Lvpiegi",
    "supertype": "qlk_primi_meth_0",
    "subset": "primi",
    "meth": 0,
    "sep": false,
    "type": "real(dbl)",
    "ndims": 4,
    "normalized": false
  },
  "fdsol": {
    "name": "fdsol",
    "supertype": "qlk_primi_meth_0",
    "subset": "primi",
    "meth": 0,
    "sep": false,
    "type": "complex(dbl)",
    "ndims": 3,
    "normalized": false
  },
  "modeshift": {
    "name": "modeshift",
    "supertype": "qlk_primi_meth_0",
    "subset": "primi",
    "meth": 0,
    "sep": false,
    "type": "complex(dbl)",
    "ndims": 2,
    "normalized": false
  },
  "modewidth": {
    "name": "modewidth",
    "supertype": "qlk_primi_meth_0",
    "subset": "primi",
    "meth": 0,
    "sep": false,
    "type": "complex(dbl)",
    "ndims": 2,
    "normalized": false
  },
  "sol": {
    "name": "sol",
    "supertype": "qlk_primi_meth_0",
    "subset": "primi",
    "meth": 0,
    "sep": false,
    "type": "complex(dbl)",
    "ndims": 3,
    "normalized": false
  },
  "solflu": {
    "name": "solflu",
    "supertype": "qlk_primi_meth_0",
    "subset": "primi",
    "meth": 0,
    "sep": false,
    "type": "complex(dbl)",
    "ndims": 2,
    "normalized": false
  },
  "ntor": {
    "name": "ntor",
    "supertype": "qlk_primi_meth_0",
    "subset": "primi",
    "meth": 0,
    "sep": false,
    "type": "real(dbl)",
    "ndims": 2,
    "normalized": false
  },
  "distan": {
    "name": "distan",
    "supertype": "qlk_primi_meth_0",
    "subset": "primi",
    "meth": 0,
    "sep": false,
    "type": "real(dbl)",
    "ndims": 2,
    "normalized": false
  },
  "kperp2": {
    "name": "kperp2",
    "supertype": "qlk_primi_meth_0",
    "subset": "primi",
    "meth": 0,
    "sep": false,
    "type": "real(dbl)",
    "ndims": 2,
    "normalized": false
  },
  "kymaxETG": {
    "name": "kymaxETG",
    "supertype": "qlk_primi_meth_0",
    "subset": "primi",
    "meth": 0,
    "sep": false,
    "type": "real(dbl)",
    "ndims": 1,
    "normalized": false
  },
  "kymaxITG": {
    "name": "kymaxITG",
    "supertype": "qlk_primi_meth_0",
    "subset": "primi",
    "meth": 0,
    "sep": false,
    "type": "real(dbl)",
    "ndims": 1,
    "normalized": false
  },
  "Lcircgne": {
    "name": "Lcircgne",
    "supertype": "qlk_primi_meth_1",
    "subset": "primi",
    "meth": 1,
    "sep": false,
    "type": "real(dbl)",
    "ndims": 3,
    "normalized": false
  },
  "Lcircgni": {
    "name": "Lcircgni",
    "supertype": "qlk_primi_meth_1",
    "subset": "primi",
    "meth": 1,
    "sep": false,
    "type": "real(dbl)",
    "ndims": 4,
    "normalized": false
  },
  "Lcircgte": {
    "name": "Lcircgte",
    "supertype": "qlk_primi_meth_1",
    "subset": "primi",
    "meth": 1,
    "sep": false,
    "type": "real(dbl)",
    "ndims": 3,
    "normalized": false
  },
  "Lcircgti": {
    "name": "Lcircgti",
    "supertype": "qlk_primi_meth_1",
    "subset": "primi",
    "meth": 1,
    "sep": false,
    "type": "real(dbl)",
    "ndims": 4,
    "normalized": false
  },
  "Lcircgui": {
    "name": "Lcircgui",
    "supertype": "qlk_primi_meth_1",
    "subset": "primi",
    "meth": 1,
    "sep": false,
    "type": "real(dbl)",
    "ndims": 4,
    "normalized": false
  },
  "Lcircce": {
    "name": "Lcircce",
    "supertype": "qlk_primi_meth_1",
    "subset": "primi",
    "meth": 1,
    "sep": false,
    "type": "real(dbl)",
    "ndims": 3,
    "normalized": false
  },
  "Lcircci": {
    "name": "Lcircci",
    "supertype": "qlk_primi_meth_1",
    "subset": "primi",
    "meth": 1,
    "sep": false,
    "type": "real(dbl)",
    "ndims": 4,
    "normalized": false
  },
  "Lpiegce": {
    "name": "Lpiegce",
    "supertype": "qlk_primi_meth_1",
    "subset": "primi",
    "meth": 1,
    "sep": false,
    "type": "real(dbl)",
    "ndims": 3,
    "normalized": false
  },
  "Lpiegci": {
    "name": "Lpiegci",
    "supertype": "qlk_primi_meth_1",
    "subset": "primi",
    "meth": 1,
    "sep": false,
    "type": "real(dbl)",
    "ndims": 4,
    "normalized": false
  },
  "Lpieggte": {
    "name": "Lpieggte",
    "supertype": "qlk_primi_meth_1",
    "subset": "primi",
    "meth": 1,
    "sep": false,
    "type": "real(dbl)",
    "ndims": 3,
    "normalized": false
  },
  "Lpieggti": {
    "name": "Lpieggti",
    "supertype": "qlk_primi_meth_1",
    "subset": "primi",
    "meth": 1,
    "sep": false,
    "type": "real(dbl)",
    "ndims": 4,
    "normalized": false
  },
  "Lpieggui": {
    "name": "Lpieggui",
    "supertype": "qlk_primi_meth_1",
    "subset": "primi",
    "meth": 1,
    "sep": false,
    "type": "real(dbl)",
    "ndims": 4,
    "normalized": false
  },
  "Lpieggne": {
    "name": "Lpieggne",
    "supertype": "qlk_primi_meth_1",
    "subset": "primi",
    "meth": 1,
    "sep": false,
    "type": "real(dbl)",
    "ndims": 3,
    "normalized": false
  },
  "Lpieggni": {
    "name": "Lpieggni",
    "supertype": "qlk_primi_meth_1",
    "subset": "primi",
    "meth": 1,
    "sep": false,
    "type": "real(dbl)",
    "ndims": 4,
    "normalized": false
  },
  "Lecircce": {
    "name": "Lecircce",
    "supertype": "qlk_primi_meth_2",
    "subset": "primi",
    "meth": 2,
    "sep": false,
    "type": "real(dbl)",
    "ndims": 3,
    "normalized": false
  },
  "Lecircci": {
    "name": "Lecircci",
    "supertype": "qlk_primi_meth_2",
    "subset": "primi",
    "meth": 2,
    "sep": false,
    "type": "real(dbl)",
    "ndims": 4,
    "normalized": false
  },
  "Lecircgne": {
    "name": "Lecircgne",
    "supertype": "qlk_primi_meth_2",
    "subset": "primi",
    "meth": 2,
    "sep": false,
    "type": "real(dbl)",
    "ndims": 3,
    "normalized": false
  },
  "Lecircgni": {
    "name": "Lecircgni",
    "supertype": "qlk_primi_meth_2",
    "subset": "primi",
    "meth": 2,
    "sep": false,
    "type": "real(dbl)",
    "ndims": 4,
    "normalized": false
  },
  "Lecircgte": {
    "name": "Lecircgte",
    "supertype": "qlk_primi_meth_2",
    "subset": "primi",
    "meth": 2,
    "sep": false,
    "type": "real(dbl)",
    "ndims": 3,
    "normalized": false
  },
  "Lecircgti": {
    "name": "Lecircgti",
    "supertype": "qlk_primi_meth_2",
    "subset": "primi",
    "meth": 2,
    "sep": false,
    "type": "real(dbl)",
    "ndims": 4,
    "normalized": false
  },
  "Lecircgui": {
    "name": "Lecircgui",
    "supertype": "qlk_primi_meth_2",
    "subset": "primi",
    "meth": 2,
    "sep": false,
    "type": "real(dbl)",
    "ndims": 4,
    "normalized": false
  },
  "Lepiegce": {
    "name": "Lepiegce",
    "supertype": "qlk_primi_meth_2",
    "subset": "primi",
    "meth": 2,
    "sep": false,
    "type": "real(dbl)",
    "ndims": 3,
    "normalized": false
  },
  "Lepiegci": {
    "name": "Lepiegci",
    "supertype": "qlk_primi_meth_2",
    "subset": "primi",
    "meth": 2,
    "sep": false,
    "type": "real(dbl)",
    "ndims": 4,
    "normalized": false
  },
  "Lepieggne": {
    "name": "Lepieggne",
    "supertype": "qlk_primi_meth_2",
    "subset": "primi",
    "meth": 2,
    "sep": false,
    "type": "real(dbl)",
    "ndims": 3,
    "normalized": false
  },
  "Lepieggni": {
    "name": "Lepieggni",
    "supertype": "qlk_primi_meth_2",
    "subset": "primi",
    "meth": 2,
    "sep": false,
    "type": "real(dbl)",
    "ndims": 4,
    "normalized": false
  },
  "Lepieggui": {
    "name": "Lepieggui",
    "supertype": "qlk_primi_meth_2",
    "subset": "primi",
    "meth": 2,
    "sep": false,
    "type": "real(dbl)",
    "ndims": 4,
    "normalized": false
  },
  "Lepieggte": {
    "name": "Lepieggte",
    "supertype": "qlk_primi_meth_2",
    "subset": "primi",
    "meth": 2,
    "sep": false,
    "type": "real(dbl)",
    "ndims": 3,
    "normalized": false
  },
  "Lepieggti": {
    "name": "Lepieggti",
    "supertype": "qlk_primi_meth_2",
    "subset": "primi",
    "meth": 2,
    "sep": false,
    "type": "real(dbl)",
    "ndims": 4,
    "normalized": false
  },
  "dimn": {
    "name": "dimn",
    "supertype": "qlk_sizes",
    "subset": "sizes",
    "type": "integer ",
    "ndims": 0,
    "normalized": false
  },
  "dimx": {
    "name": "dimx",
    "supertype": "qlk_sizes",
    "subset": "sizes",
    "type": "integer ",
    "ndims": 0,
    "normalized": false
  },
  "nions": {
    "name": "nions",
    "supertype": "qlk_sizes",
    "subset": "sizes",
    "type": "integer ",
    "ndims": 0,
    "normalized": false
  },
  "numsols": {
    "name": "numsols",
    "supertype": "qlk_sizes",
    "subset": "sizes",
    "type": "integer ",
    "ndims": 0,
    "normalized": false
  },
  "Ane": {
    "name": "Ane",
    "supertype": "qlk_in_regular",
    "subset": "in",
    "type": "real(dbl)",
    "ndims": 1,
    "normalized": false
  },
  "Ate": {
    "name": "Ate",
    "supertype": "qlk_in_regular",
    "subset": "in",
    "type": "real(dbl)",
    "ndims": 1,
    "normalized": false
  },
  "Aupar": {
    "name": "Aupar",
    "supertype": "qlk_in_regular",
    "subset": "in",
    "type": "real(dbl)",
    "ndims": 1,
    "normalized": false
  },
  "Autor": {
    "name": "Autor",
    "supertype": "qlk_in_regular",
    "subset": "in",
    "type": "real(dbl)",
    "ndims": 1,
    "normalized": false
  },
  "Machpar": {
    "name": "Machpar",
    "supertype": "qlk_in_regular",
    "subset": "in",
    "type": "real(dbl)",
    "ndims": 1,
    "normalized": false
  },
  "Machtor": {
    "name": "Machtor",
    "supertype": "qlk_in_regular",
    "subset": "in",
    "type": "real(dbl)",
    "ndims": 1,
    "normalized": false
  },
  "x": {
    "name": "x",
    "supertype": "qlk_in_regular",
    "subset": "in",
    "type": "real(dbl)",
    "ndims": 1,
    "normalized": false
  },
  "Bo": {
    "name": "Bo",
    "supertype": "qlk_in_regular",
    "subset": "in",
    "type": "real(dbl)",
    "ndims": 1,
    "normalized": false
  },
  "gammaE": {
    "name": "gammaE",
    "supertype": "qlk_in_regular",
    "subset": "in",
    "type": "real(dbl)",
    "ndims": 1,
    "normalized": false
  },
  "ne": {
    "name": "ne",
    "supertype": "qlk_in_regular",
    "subset": "in",
    "type": "real(dbl)",
    "ndims": 1,
    "normalized": false
  },
  "q": {
    "name": "q",
    "supertype": "qlk_in_regular",
    "subset": "in",
    "type": "real(dbl)",
    "ndims": 1,
    "normalized": false
  },
  "Ro": {
    "name": "Ro",
    "supertype": "qlk_in_regular",
    "subset": "in",
    "type": "real(dbl)",
    "ndims": 1,
    "normalized": false
  },
  "Rmin": {
    "name": "Rmin",
    "supertype": "qlk_in_regular",
    "subset": "in",
    "type": "real(dbl)",
    "ndims": 1,
    "normalized": false
  },
  "smag": {
    "name": "smag",
    "supertype": "qlk_in_regular",
    "subset": "in",
    "type": "real(dbl)",
    "ndims": 1,
    "normalized": false
  },
  "Te": {
    "name": "Te",
    "supertype": "qlk_in_regular",
    "subset": "in",
    "type": "real(dbl)",
    "ndims": 1,
    "normalized": false
  },
  "alpha": {
    "name": "alpha",
    "supertype": "qlk_in_regular",
    "subset": "in",
    "type": "real(dbl)",
    "ndims": 1,
    "normalized": false
  },
  "rho": {
    "name": "rho",
    "supertype": "qlk_in_regular",
    "subset": "in",
    "type": "real(dbl)",
    "ndims": 1,
    "normalized": false
  },
  "anise": {
    "name": "anise",
    "supertype": "qlk_in_regular",
    "subset": "in",
    "type": "real(dbl)",
    "ndims": 1,
    "normalized": false
  },
  "danisedr": {
    "name": "danisedr",
    "supertype": "qlk_in_regular",
    "subset": "in",
    "type": "real(dbl)",
    "ndims": 1,
    "normalized": false
  },
  "kthetarhos": {
    "name": "kthetarhos",
    "supertype": "qlk_in_regular",
    "subset": "in",
    "type": "real(dbl)",
    "ndims": 1,
    "normalized": false
  },
  "Ai": {
    "name": "Ai",
    "supertype": "qlk_in_regular",
    "subset": "in",
    "type": "real(dbl)",
    "ndims": 2,
    "normalized": false
  },
  "Ani": {
    "name": "Ani",
    "supertype": "qlk_in_regular",
    "subset": "in",
    "type": "real(dbl)",
    "ndims": 2,
    "normalized": false
  },
  "Ati": {
    "name": "Ati",
    "supertype": "qlk_in_regular",
    "subset": "in",
    "type": "real(dbl)",
    "ndims": 2,
    "normalized": false
  },
  "Zi": {
    "name": "Zi",
    "supertype": "qlk_in_regular",
    "subset": "in",
    "type": "real(dbl)",
    "ndims": 2,
    "normalized": false
  },
  "typei": {
    "name": "typei",
    "supertype": "qlk_in_regular",
    "subset": "in",
    "type": "real(dbl)",
    "ndims": 2,
    "normalized": false
  },
  "normni": {
    "name": "normni",
    "supertype": "qlk_in_regular",
    "subset": "in",
    "type": "real(dbl)",
    "ndims": 2,
    "normalized": false
  },
  "Ti": {
    "name": "Ti",
    "supertype": "qlk_in_regular",
    "subset": "in",
    "type": "real(dbl)",
    "ndims": 2,
    "normalized": false
  },
  "anis": {
    "name": "anis",
    "supertype": "qlk_in_regular",
    "subset": "in",
    "type": "real(dbl)",
    "ndims": 2,
    "normalized": false
  },
  "danisdr": {
    "name": "danisdr",
    "supertype": "qlk_in_regular",
    "subset": "in",
    "type": "real(dbl)",
    "ndims": 2,
    "normalized": false
  },
  "ion_type": {
    "name": "ion_type",
    "supertype": "qlk_in_regular",
    "subset": "in",
    "type": "integer",
    "ndims": 2,
    "normalized": false
  },
  "el_type": {
    "name": "el_type",
    "supertype": "qlk_in_regular",
    "subset": "in",
    "type": "integer ",
    "ndims": 0,
    "normalized": false
  },
  "coll_flag": {
    "name": "coll_flag",
    "supertype": "qlk_in_regular",
    "subset": "in",
    "type": "integer ",
    "ndims": 0,
    "normalized": false
  },
  "maxpts": {
    "name": "maxpts",
    "supertype": "qlk_in_regular",
    "subset": "in",
    "type": "integer ",
    "ndims": 0,
    "normalized": false
  },
  "maxruns": {
    "name": "maxruns",
    "supertype": "qlk_in_regular",
    "subset": "in",
    "type": "integer ",
    "ndims": 0,
    "normalized": false
  },
  "typee": {
    "name": "typee",
    "supertype": "qlk_in_regular",
    "subset": "in",
    "type": "integer ",
    "ndims": 0,
    "normalized": false
  },
  "separateflux": {
    "name": "separateflux",
    "supertype": "qlk_in_regular",
    "subset": "in",
    "type": "integer ",
    "ndims": 0,
    "normalized": false
  },
  "phys_meth": {
    "name": "phys_meth",
    "supertype": "qlk_in_regular",
    "subset": "in",
    "type": "integer ",
    "ndims": 0,
    "normalized": false
  },
  "verbose": {
    "name": "verbose",
    "supertype": "qlk_in_regular",
    "subset": "in",
    "type": "integer ",
    "ndims": 0,
    "normalized": false
  },
  "integration_routine": {
    "name": "integration_routine",
    "supertype": "qlk_in_regular",
    "subset": "in",
    "type": "integer ",
    "ndims": 0,
    "normalized": false
  },
  "simple_mpi_only": {
    "name": "simple_mpi_only",
    "supertype": "qlk_in_regular",
    "subset": "in",
    "type": "integer ",
    "ndims": 0,
    "normalized": false
  },
  "write_primi": {
    "name": "write_primi",
    "supertype": "qlk_in_regular",
    "subset": "in",
    "type": "integer ",
    "ndims": 0,
    "normalized": false
  },
  "rot_flag": {
    "name": "rot_flag",
    "supertype": "qlk_in_regular",
    "subset": "in",
    "type": "integer ",
    "ndims": 0,
    "normalized": false
  },
  "relacc1": {
    "name": "relacc1",
    "supertype": "qlk_in_regular",
    "subset": "in",
    "type": "real(dbl)",
    "ndims": 0,
    "normalized": false
  },
  "relacc2": {
    "name": "relacc2",
    "supertype": "qlk_in_regular",
    "subset": "in",
    "type": "real(dbl)",
    "ndims": 0,
    "normalized": false
  },
  "absacc1": {
    "name": "absacc1",
    "supertype": "qlk_in_regular",
    "subset": "in",
    "type": "real(dbl)",
    "ndims": 0,
    "normalized": false
  },
  "absacc2": {
    "name": "absacc2",
    "supertype": "qlk_in_regular",
    "subset": "in",
    "type": "real(dbl)",
    "ndims": 0,
    "normalized": false
  },
  "collmult": {
    "name": "collmult",
    "supertype": "qlk_in_regular",
    "subset": "in",
    "type": "real(dbl)",
    "ndims": 0,
    "normalized": false
  },
  "ETGmult": {
    "name": "ETGmult",
    "supertype": "qlk_in_regular",
    "subset": "in",
    "type": "real(dbl)",
    "ndims": 0,
    "normalized": false
  },
  "timeout": {
    "name": "timeout",
    "supertype": "qlk_in_regular",
    "subset": "in",
    "type": "real(dbl)",
    "ndims": 0,
    "normalized": false
  },
  "rhomin": {
    "name": "rhomin",
    "supertype": "qlk_in_regular",
    "subset": "in",
    "type": "real(dbl)",
    "ndims": 0,
    "normalized": false
  },
  "rhomax": {
    "name": "rhomax",
    "supertype": "qlk_in_regular",
    "subset": "in",
    "type": "real(dbl)",
    "ndims": 0,
    "normalized": false
  },
  "oldsol": {
    "name": "oldsol",
    "supertype": "qlk_in_newt",
    "subset": "in_newt",
    "type": "complex(dbl)",
    "ndims": 3,
    "normalized": false
  },
  "oldfdsol": {
    "name": "oldfdsol",
    "supertype": "qlk_in_newt",
    "subset": "in_newt",
    "type": "complex(dbl)",
    "ndims": 3,
    "normalized": false
  },
  "ntheta": {
    "name": "ntheta",
    "subset": "hardcoded",
    "sep": false,
    "type": "integer",
    "ndims": 0,
    "supertype": null,
    "value": "64"
  },
  "numecoefs": {
    "name": "numecoefs",
    "subset": "hardcoded",
    "sep": false,
    "type": "integer",
    "ndims": 0,
    "supertype": null,
    "value": "13"
  },
  "numicoefs": {
    "name": "numicoefs",
    "subset": "hardcoded",
    "sep": false,
    "type": "integer",
    "ndims": 0,
    "supertype": null,
    "value": "7"
  },
  "dbl": {
      "name": "dbl",
      "subset": "hardcoded",
      "type": "integer",
      "value": "SELECTED_REAL_KIND(p=12,r=50)"
  },
  "sgl": {
      "name": "sgl",
      "subset": "hardcoded",
      "type": "integer",
      "value": "SELECTED_REAL_KIND(p=6,r=37)"
  }
}
